\relax 
\catcode 95\active
\select@language{english}
\@writefile{toc}{\select@language{english}}
\@writefile{lof}{\select@language{english}}
\@writefile{lot}{\select@language{english}}
\@writefile{toc}{\contentsline {section}{\numberline {1}Introduction}{2}}
\@writefile{toc}{\contentsline {section}{\numberline {2}Engine Development}{2}}
\@writefile{toc}{\contentsline {subsection}{\numberline {2.1}Scene Representation}{2}}
\@writefile{lof}{\contentsline {figure}{\numberline {1}{\ignorespaces Scene-graph update sequence\relax }}{2}}
\@writefile{toc}{\contentsline {subsection}{\numberline {2.2}SceneNodeBehaviour}{2}}
\@writefile{lol}{\contentsline {lstlisting}{\numberline {1}SceneNodeBehaviour class outline}{2}}
\citation{urlDeferred}
\@writefile{toc}{\contentsline {subsection}{\numberline {2.3}Mounting Nodes}{3}}
\@writefile{lol}{\contentsline {lstlisting}{\numberline {2}Attaching another SceneNode}{3}}
\@writefile{toc}{\contentsline {subsection}{\numberline {2.4}Deferred Rendering}{3}}
\citation{urlPacking}
\@writefile{lof}{\contentsline {figure}{\numberline {2}{\ignorespaces G-Buffer structure\relax }}{4}}
\@writefile{lol}{\contentsline {lstlisting}{\numberline {3}Packing/Unpacking Normals and Specular components}{4}}
\@writefile{lof}{\contentsline {figure}{\numberline {3}{\ignorespaces G-Buffer structure\relax }}{4}}
\citation{urlAStar}
\@writefile{lol}{\contentsline {lstlisting}{\numberline {4}Reconstructing depth in Composition shader}{5}}
\@writefile{lol}{\contentsline {lstlisting}{\numberline {5}Lighting composition}{5}}
\@writefile{toc}{\contentsline {subsection}{\numberline {2.5}Path-finding}{5}}
\@writefile{toc}{\contentsline {subsubsection}{\numberline {2.5.1}AsyncPathFindingService}{5}}
\@writefile{lol}{\contentsline {lstlisting}{\numberline {6}AsyncPathFindingService work cycle}{5}}
\@writefile{toc}{\contentsline {subsubsection}{\numberline {2.5.2}Producing}{6}}
\@writefile{lol}{\contentsline {lstlisting}{\numberline {7}Pushing a query to the A* thread}{6}}
\@writefile{toc}{\contentsline {subsubsection}{\numberline {2.5.3}Consuming}{6}}
\@writefile{lol}{\contentsline {lstlisting}{\numberline {8}Processing path-find results}{6}}
\@writefile{toc}{\contentsline {subsection}{\numberline {2.6}Physics Integration}{6}}
\@writefile{toc}{\contentsline {subsubsection}{\numberline {2.6.1}PhysicalEntity class}{7}}
\@writefile{lol}{\contentsline {lstlisting}{\numberline {9}Creating a capsule entity}{7}}
\@writefile{lol}{\contentsline {lstlisting}{\numberline {10}Creating a capsule entity \#2}{7}}
\@writefile{toc}{\contentsline {subsubsection}{\numberline {2.6.2}Handling collision response / gravity}{7}}
\@writefile{lol}{\contentsline {lstlisting}{\numberline {11}Propagating collision events to SceneNodeBehaviours}{8}}
\@writefile{toc}{\contentsline {subsubsection}{\numberline {2.6.3}Synchronising SceneNode and PhysicalEntity transformations}{8}}
\@writefile{lol}{\contentsline {lstlisting}{\numberline {12}Synchronising translation}{8}}
\@writefile{toc}{\contentsline {subsubsection}{\numberline {2.6.4}Collision groups}{8}}
\@writefile{lol}{\contentsline {lstlisting}{\numberline {13}Creating collision groups}{9}}
\@writefile{toc}{\contentsline {subsection}{\numberline {2.7}Post-Process Effects}{9}}
\@writefile{lof}{\contentsline {figure}{\numberline {4}{\ignorespaces Post-process manager render sequence\relax }}{10}}
\@writefile{lol}{\contentsline {lstlisting}{\numberline {14}Downsampling glow regions}{10}}
\@writefile{toc}{\contentsline {subsection}{\numberline {2.8}3D Sound and Music}{10}}
\@writefile{toc}{\contentsline {section}{\numberline {3}Game Development}{11}}
\@writefile{toc}{\contentsline {subsection}{\numberline {3.1}Abstract Game Manager}{11}}
\@writefile{toc}{\contentsline {subsubsection}{\numberline {3.1.1}Generating Level Links}{11}}
\@writefile{lol}{\contentsline {lstlisting}{\numberline {15}Setting up level relations}{11}}
\@writefile{lol}{\contentsline {lstlisting}{\numberline {16}Selecting a spawn point}{12}}
\@writefile{toc}{\contentsline {subsubsection}{\numberline {3.1.2}Level XML Parsing}{12}}
\@writefile{lof}{\contentsline {figure}{\numberline {5}{\ignorespaces Fire Dungeon XML\relax }}{13}}
\@writefile{lol}{\contentsline {lstlisting}{\numberline {17}Parsing the lights defined in a level XML file}{13}}
\@writefile{toc}{\contentsline {subsubsection}{\numberline {3.1.3}Handling Object Properties and Behaviours}{13}}
\@writefile{lol}{\contentsline {lstlisting}{\numberline {18}Properties class}{14}}
\@writefile{lol}{\contentsline {lstlisting}{\numberline {19}Behaviour class}{14}}
\@writefile{lol}{\contentsline {lstlisting}{\numberline {20}Instantiating properties and behaviours from string}{14}}
\@writefile{lol}{\contentsline {lstlisting}{\numberline {21}Creating a light node for the level}{15}}
\@writefile{toc}{\contentsline {subsection}{\numberline {3.2}Dragon Behaviour}{15}}
\@writefile{toc}{\contentsline {section}{\numberline {4}Audio and 3D Model Assets}{15}}
\@writefile{toc}{\contentsline {subsection}{\numberline {4.1}Audio Assets}{15}}
\bibstyle{apalike}
\bibdata{master}
\bibcite{urlPacking}{Skytiger, 2010}
\bibcite{urlAStar}{Triesscheijn, 2009}
\bibcite{urlDeferred}{Zima, 2009}
\@writefile{toc}{\contentsline {subsection}{\numberline {4.2}3D Models \& Textures contribution}{16}}
