\relax 
\catcode 95\active
\select@language{english}
\@writefile{toc}{\select@language{english}}
\@writefile{lof}{\select@language{english}}
\@writefile{lot}{\select@language{english}}
\@writefile{toc}{\contentsline {section}{\numberline {1}Game Concept}{4}}
\@writefile{toc}{\contentsline {subsection}{\numberline {1.1}Rules}{4}}
\@writefile{toc}{\contentsline {subsubsection}{\numberline {1.1.1}Win Conditions}{4}}
\@writefile{toc}{\contentsline {subsubsection}{\numberline {1.1.2}Lose Conditions}{4}}
\@writefile{toc}{\contentsline {subsection}{\numberline {1.2}Perspective}{4}}
\@writefile{toc}{\contentsline {subsection}{\numberline {1.3}Dungeons}{4}}
\newlabel{fig:mainHalls}{{1a}{5}}
\newlabel{sub@fig:mainHalls}{{(a)}{a}}
\newlabel{fig:airDungeon}{{1b}{5}}
\newlabel{sub@fig:airDungeon}{{(b)}{b}}
\newlabel{fig:waterDungeon}{{1c}{5}}
\newlabel{sub@fig:waterDungeon}{{(c)}{c}}
\newlabel{fig:fireDungeon}{{1d}{5}}
\newlabel{sub@fig:fireDungeon}{{(d)}{d}}
\newlabel{fig:earthDungeon}{{1e}{5}}
\newlabel{sub@fig:earthDungeon}{{(e)}{e}}
\@writefile{lof}{\contentsline {subfigure}{\numberline{(a)}{\ignorespaces {Main Halls}}}{5}}
\@writefile{lof}{\contentsline {subfigure}{\numberline{(b)}{\ignorespaces {Air Dungeon}}}{5}}
\@writefile{lof}{\contentsline {subfigure}{\numberline{(c)}{\ignorespaces {Water Dungeon}}}{5}}
\@writefile{lof}{\contentsline {subfigure}{\numberline{(d)}{\ignorespaces {Fire Dungeon}}}{5}}
\@writefile{lof}{\contentsline {subfigure}{\numberline{(e)}{\ignorespaces {Earth Dungeon}}}{5}}
\@writefile{toc}{\contentsline {subsection}{\numberline {1.4}Characters}{5}}
\newlabel{fig:wizardChar}{{1f}{5}}
\newlabel{sub@fig:wizardChar}{{(f)}{f}}
\newlabel{fig:skeletonChar}{{1g}{5}}
\newlabel{sub@fig:skeletonChar}{{(g)}{g}}
\newlabel{fig:dragonChar}{{1h}{5}}
\newlabel{sub@fig:dragonChar}{{(h)}{h}}
\@writefile{lof}{\contentsline {subfigure}{\numberline{(f)}{\ignorespaces {Wizard}}}{4}}
\@writefile{lof}{\contentsline {subfigure}{\numberline{(g)}{\ignorespaces {Skeleton}}}{4}}
\@writefile{lof}{\contentsline {subfigure}{\numberline{(h)}{\ignorespaces {Dragon}}}{4}}
\@writefile{toc}{\contentsline {subsubsection}{\numberline {1.4.1}Wizard}{4}}
\@writefile{toc}{\contentsline {subsubsection}{\numberline {1.4.2}Guardian}{5}}
\@writefile{toc}{\contentsline {subsubsection}{\numberline {1.4.3}Skeleton}{5}}
\@writefile{toc}{\contentsline {subsubsection}{\numberline {1.4.4}Abroxetron Dragon}{5}}
\@writefile{toc}{\contentsline {subsection}{\numberline {1.5}Spells}{5}}
\@writefile{lof}{\contentsline {figure}{\numberline {1}{\ignorespaces All four spells: Air (top-left), Earth (top-right), Fire (bottom-left), and Water (bottom-right)\relax }}{6}}
\@writefile{toc}{\contentsline {subsection}{\numberline {1.6}AI}{6}}
\@writefile{toc}{\contentsline {subsubsection}{\numberline {1.6.1}Skeleton Attack Behaviour}{7}}
\@writefile{toc}{\contentsline {subsubsection}{\numberline {1.6.2}Dragon Attack Behaviour}{7}}
\@writefile{toc}{\contentsline {section}{\numberline {2}Technologies Outline}{7}}
\@writefile{toc}{\contentsline {subsection}{\numberline {2.1}C\# XNA 4.0}{7}}
\@writefile{toc}{\contentsline {subsection}{\numberline {2.2}BEPU Physics}{7}}
\@writefile{toc}{\contentsline {subsection}{\numberline {2.3}Kinect}{7}}
\@writefile{toc}{\contentsline {section}{\numberline {3}Tools}{8}}
\@writefile{toc}{\contentsline {subsection}{\numberline {3.1}Used}{8}}
\@writefile{toc}{\contentsline {subsubsection}{\numberline {3.1.1}Audacity}{8}}
\@writefile{toc}{\contentsline {subsubsection}{\numberline {3.1.2}Evart}{8}}
\@writefile{toc}{\contentsline {subsubsection}{\numberline {3.1.3}Motion Builder}{8}}
\@writefile{toc}{\contentsline {subsubsection}{\numberline {3.1.4}Maya}{8}}
\@writefile{toc}{\contentsline {subsubsection}{\numberline {3.1.5}ZBrush}{8}}
\@writefile{toc}{\contentsline {subsubsection}{\numberline {3.1.6}3D Studio MAX}{9}}
\@writefile{toc}{\contentsline {subsubsection}{\numberline {3.1.7}CrazyBump}{9}}
\@writefile{toc}{\contentsline {subsubsection}{\numberline {3.1.8}Photoshop}{9}}
\@writefile{toc}{\contentsline {subsection}{\numberline {3.2}Developed}{9}}
\@writefile{toc}{\contentsline {subsubsection}{\numberline {3.2.1}Ghast Particle Editor}{9}}
\@writefile{lof}{\contentsline {figure}{\numberline {2}{\ignorespaces Ghast particle editor\relax }}{9}}
\@writefile{toc}{\contentsline {subsubsection}{\numberline {3.2.2}Gem Model Viewer}{9}}
\@writefile{lof}{\contentsline {figure}{\numberline {3}{\ignorespaces Gem model viewer\relax }}{10}}
\@writefile{toc}{\contentsline {subsubsection}{\numberline {3.2.3}XmlExporter42}{10}}
\@writefile{toc}{\contentsline {section}{\numberline {4}User's Manual}{10}}
\@writefile{toc}{\contentsline {subsection}{\numberline {4.1}Kinect/Mouse Controls}{10}}
\@writefile{toc}{\contentsline {subsection}{\numberline {4.2}XBox 360 Gamepad Controls}{11}}
\@writefile{lof}{\contentsline {figure}{\numberline {4}{\ignorespaces Gamepad In-Game Controls\relax }}{11}}
